452844 458189 369
308776 366456 441
679545 279989 509
510493 524632 470
50837 927353 525
774050 188724 509
255636 660195 509
266052 873690 525
729592 47147 509
249494 657906 509
380901 92081 443
619263 41380 470
356706 720751 509
188277 11190 383
288785 706897 509
657080 661365 398
186206 127924 383
307156 233027 407
780411 100365 509
618652 93416 470
776578 40825 509
876941 517968 525
453584 494866 444
65641 550964 470
591416 691005 509
222518 542768 470
162986 88298 383
659203 354841 509
705782 553847 509
78044 417244 449
401923 135249 443
215693 220206 386
582595 358673 470
942690 944198 352
963959 280715 525
221601 849121 525
799108 20022 509
472115 854359 525
34979 865334 525
27749 657079 509
896011 607387 525
953822 829420 525
616071 833403 509
982997 682717 525
267070 632467 509
948769 541388 525
353807 996503 525
369673 765467 509
336542 6915 443
458157 299493 449
553820 765772 509
437443 543760 470
793421 862994 525
890811 582365 525
407031 116166 443
545090 71083 470
841790 21414 525
608321 715815 509
763399 216901 509
912972 664336 525
527396 776305 509
109505 357281 443
81270 796191 509
656915 431612 509
730132 847005 525
154388 237241 443
925089 916294 445
64441 106022 351
156819 569273 470
869834 289499 525
443664 65467 449
419 665755 509
235535 318526 407
320222 749207 509
588756 530221 452
705875 378803 509
33006 614487 470
430415 447264 400
712200 474492 509
74895 846842 525
872428 194191 525
45818 598076 470
73396 705674 509
736268 822464 468
808216 517811 509
113965 594653 470
199580 167026 365
927969 219258 525
885813 306191 525
508353 81816 449
35139 972344 525
856505 297940 525
793172 604660 509
41404 210061 383
555838 706263 509
673012 853253 525
449212 909708 525
240414 25646 443
501411 749259 509
307596 786585 509
717179 138470 509
742033 739424 393
130107 338230 443
172221 723285 509
818594 174093 509
403476 800417 509
992052 601244 525
562231 937795 525
653390 532169 509
833236 614947 509
865741 802740 525
16464 687575 509
910021 497097 525
742879 176537 509
87910 592000 470
151858 676526 509
834515 247751 509
318878 677873 509
626752 23820 509
441972 478301 444
458565 921293 525
860030 601562 525
287293 189663 443
512517 192745 470
688311 798645 504
649162 260179 509
413043 912561 525
648512 959414 525
383245 236138 441
697447 39277 509
747973 563745 509
64099 755289 509
858898 520113 525
517897 437644 470
884252 862208 432
929890 16729 525
760866 549700 509
741572 960374 525
423755 323322 449
753039 51718 509
688624 672784 398
981217 405989 525
624621 777460 509
610707 253279 470
659716 661869 323
603458 861850 525
121771 391911 443
350594 424333 449
417057 546976 470
231010 258793 381
333573 552194 470
775940 704624 468
223800 525590 470
871630 187024 525
38987 864244 525
581531 19159 470
959187 616021 525
907527 881297 445
39646 516042 470
561301 193786 470
294611 867771 525
618467 142310 470
731240 813197 468
897624 490671 525
702633 167090 509
134490 499050 449
388953 30985 443
50536 934330 525
914271 767803 525
722917 321963 509
638256 551803 509
338208 70759 443
545533 199172 470
8294 148050 375
790241 951931 525
854048 459795 525
49510 321433 443
305947 435988 449
55258 47202 340
407516 610019 470
514154 320716 470
476305 645913 509
415067 448545 418
314467 612374 470
512195 443811 470
137832 361614 443
608541 498386 470
487372 206196 449
254337 696783 509
40064 164253 383
982075 948198 458
447234 103055 449
328120 449980 449
620522 205045 470
411034 396364 449
180667 556931 470
115787 24888 354
257163 844912 525
476740 144074 449
266165 739393 509
321198 116700 443
11443 230889 443
40753 204900 383
961729 1682 525
403887 529879 470
237749 559691 470
8579 267257 443
673639 208093 509
854521 404051 525
105041 4788 351
701084 30542 509
378121 284103 441
425427 349997 449
779408 266912 509
751134 758412 424
622015 922326 525
121090 829455 509
617866 840245 525
363177 318488 441
186013 28809 383
161836 547849 470
877182 735344 525
635694 45731 509
127120 410658 449
56682 553794 470
961905 776642 525
50845 835598 509
156695 704803 509
635448 693545 442
226457 296234 443
591170 345905 470
5279 646053 509
725145 617738 509
440993 549540 470
333030 985549 525
807945 865887 525
218969 273530 443
939217 337928 525
320465 222130 443
310421 807410 509
551251 770975 509
128800 379685 443
406632 792796 509
187325 733562 509
143370 296916 443
546158 948030 525
656359 503050 509
538828 136439 470
791912 145947 509
810296 645191 504
